…
  summarise(max_weight = max(weight,na.rm=T))
```

```
## Warning: There were 18 warnings in `summarise()`.
## The first warning was:
## ℹ In argument: `max_weight = max(weight, na.rm = T)`.
## ℹ In group 2: `species = "audubonii"`.
## Caused by warning in `max()`:
## ! no non-missing arguments to max; returning -Inf
## ℹ Run ]8;;ide:run:dplyr::last_dplyr_warnings()dplyr::last_dplyr_warnings()]8;; to see the 17 remaining warnings.
```

```
## # A tibble: 40 × 2
##    species         max_weight
##    <chr>                <dbl>
##  1 albigula               280
##  2 audubonii             -Inf
##  3 baileyi                 55
##  4 bilineata             -Inf
##  5 brunneicapillus       -Inf
##  6 chlorurus             -Inf
##  7 clarki                -Inf
##  8 eremicus                40
##  9 flavus                  25
## 10 fulvescens              20
## # … with 30 more rows
```
…
