…
```
## [1] TRUE
```

2. Use `janitor` to rename the columns and make them easier to use. As part of this cleaning step, change `country`, `isscaap_group_number`, `asfis_species_number`, and `fao_major_fishing_area` to data class factor. 

```r
fisheries <- janitor::clean_names(fisheries)
fisheries
```

```
## # A tibble: 17,692 × 71
##    country common_…¹ issca…² issca…³ asfis…⁴ asfis…⁵ fao_m…⁶ measure x1950 x1951
##    <chr>   <chr>       <dbl> <chr>   <chr>   <chr>     <dbl> <chr>   <chr> <chr>
##  1 Albania Angelsha…      38 Sharks… 10903X… Squati…      37 Quanti… <NA>  <NA> 
##  2 Albania Atlantic…      36 Tunas,… 175010… Sarda …      37 Quanti… <NA>  <NA> 
##  3 Albania Barracud…      37 Miscel… 177100… Sphyra…      37 Quanti… <NA>  <NA> 
##  4 Albania Blue and…      45 Shrimp… 228020… Ariste…      37 Quanti… <NA>  <NA> 
##  5 Albania Blue whi…      32 Cods, … 148040… Microm…      37 Quanti… <NA>  <NA> 
##  6 Albania Bluefish       37 Miscel… 170202… Pomato…      37 Quanti… <NA>  <NA> 
##  7 Albania Bogue          33 Miscel… 170392… Boops …      37 Quanti… <NA>  <NA> 
##  8 Albania Caramote…      45 Shrimp… 228010… Penaeu…      37 Quanti… <NA>  <NA> 
##  9 Albania Catshark…      38 Sharks… 108010… Scylio…      37 Quanti… <NA>  <NA> 
## 10 Albania Common c…      57 Squids… 321020… Sepia …      37 Quanti… <NA>  <NA> 
## # … with 17,682 more rows, 61 more variables: x1952 <chr>, x1953 <chr>,
## #   x1954 <chr>, x1955 <chr>, x1956 <chr>, x1957 <chr>, x1958 <chr>,
## #   x1959 <chr>, x1960 <chr>, x1961 <chr>, x1962 <chr>, x1963 <chr>,
## #   x1964 <chr>, x1965 <chr>, x1966 <chr>, x1967 <chr>, x1968 <chr>,
## #   x1969 <chr>, x1970 <chr>, x1971 <chr>, x1972 <chr>, x1973 <chr>,
## #   x1974 <chr>, x1975 <chr>, x1976 <chr>, x1977 <chr>, x1978 <chr>,
## #   x1979 <chr>, x1980 <chr>, x1981 <chr>, x1982 <chr>, x1983 <chr>, …
```
…
fisheries_tidy$catch <- as.numeric(fisheries_tidy$catch)
fisheries_tidy
```

```
## # A tibble: 376,771 × 10
##    country common_…¹ issca…² issca…³ asfis…⁴ asfis…⁵ fao_m…⁶ measure  year catch
##    <fct>   <chr>     <fct>   <chr>   <fct>   <chr>   <fct>   <chr>   <dbl> <dbl>
##  1 Albania Angelsha… 38      Sharks… 10903X… Squati… 37      Quanti…  1995    NA
##  2 Albania Angelsha… 38      Sharks… 10903X… Squati… 37      Quanti…  1996    53
##  3 Albania Angelsha… 38      Sharks… 10903X… Squati… 37      Quanti…  1997    20
##  4 Albania Angelsha… 38      Sharks… 10903X… Squati… 37      Quanti…  1998    31
##  5 Albania Angelsha… 38      Sharks… 10903X… Squati… 37      Quanti…  1999    30
##  6 Albania Angelsha… 38      Sharks… 10903X… Squati… 37      Quanti…  2000    30
##  7 Albania Angelsha… 38      Sharks… 10903X… Squati… 37      Quanti…  2001    16
##  8 Albania Angelsha… 38      Sharks… 10903X… Squati… 37      Quanti…  2002    79
##  9 Albania Angelsha… 38      Sharks… 10903X… Squati… 37      Quanti…  2003     1
## 10 Albania Angelsha… 38      Sharks… 10903X… Squati… 37      Quanti…  2004     4
## # … with 376,761 more rows, and abbreviated variable names ¹​common_name,
## #   ²​isscaap_group_number, ³​isscaap_taxonomic_group, ⁴​asfis_species_number,
## #   ⁵​asfis_species_name, ⁶​fao_major_fishing_area
```
…
6. Which country had the largest overall catch in the year 2000?

```r
fisheries_tidy %>% 
  filter(year == 2000) %>% 
  group_by(country) %>% 
  select("country", "catch", "year") %>% 
  arrange(-catch)
```

```
## # A tibble: 8,793 × 3
## # Groups:   country [193]
##    country                  catch  year
##    <fct>                    <dbl> <dbl>
##  1 China                     9068  2000
##  2 Peru                      5717  2000
##  3 Russian Federation        5065  2000
##  4 Viet Nam                  4945  2000
##  5 Chile                     4299  2000
##  6 China                     3288  2000
##  7 China                     2782  2000
##  8 United States of America  2438  2000
##  9 China                     1234  2000
## 10 Philippines                999  2000
## # … with 8,783 more rows
```
…
7. Which country caught the most sardines (_Sardina pilchardus_) between the years 1990-2000?

```r
fisheries_tidy %>% 
  filter(between(year,1990,2000)) %>% 
  filter(asfis_species_name == "Sardina pilchardus") %>% 
  group_by(country) %>% 
  select("country", "asfis_species_name", "year", "catch") %>% 
  summarize(total_catch=sum(catch, na.rm=T)) %>% 
  arrange(desc(total_catch))
```

```
## # A tibble: 37 × 2
##    country               total_catch
##    <fct>                       <dbl>
##  1 Morocco                      7470
##  2 Spain                        3507
##  3 Russian Federation           1639
##  4 Ukraine                      1030
##  5 France                        966
##  6 Portugal                      818
##  7 Greece                        528
##  8 Italy                         507
##  9 Serbia and Montenegro         478
## 10 Denmark                       477
## # … with 27 more rows
```
…
9. Which species had the highest catch total between 2008-2012? (hint: Osteichthyes is not a species)

```r
fisheries_tidy %>% 
  filter(between(year,2008,2012)) %>% 
  group_by(asfis_species_name) %>% 
  select( "asfis_species_name", "year", "catch") %>% 
  summarize(total_catch=sum(catch, na.rm=T)) %>% 
  arrange(desc(total_catch))
```

```
## # A tibble: 1,472 × 2
##    asfis_species_name    total_catch
##    <chr>                       <dbl>
##  1 Osteichthyes               107808
##  2 Theragra chalcogramma       41075
##  3 Engraulis ringens           35523
##  4 Katsuwonus pelamis          32153
##  5 Trichiurus lepturus         30400
##  6 Clupea harengus             28527
##  7 Thunnus albacares           20119
##  8 Scomber japonicus           14723
##  9 Gadus morhua                13253
## 10 Thunnus alalunga            12019
## # … with 1,462 more rows
```
…
```r
#Which species of fish were caught the least from 1990-2012? What's the 'rarest' fish in the net?
fisheries_tidy %>% 
  filter(between(year,1990,2012)) %>% 
  group_by(asfis_species_name) %>% 
  select( "asfis_species_name", "year", "catch") %>% 
  summarize(total_catch=sum(catch, na.rm=T)) %>% 
  arrange(total_catch) %>% 
  filter(total_catch != 0)
```

```
## # A tibble: 1,471 × 2
##    asfis_species_name       total_catch
##    <chr>                          <dbl>
##  1 Bathyraja maccaini                 1
##  2 Borostomias antarcticus            1
##  3 Chimaera phantasma                 1
##  4 Cynomacrurus piriei                1
##  5 Dasyatis violacea                  1
##  6 Eledone moschata                   1
##  7 Haliporoides sibogae               1
##  8 Labrus merula                      1
##  9 Lampetra fluviatilis               1
## 10 Metanephrops andamanicus           1
## # … with 1,461 more rows
```
…
