…
**7. Which countries have had the largest population growth since 1952?**

```r
gapminder_summed<-gapminder %>% 
  filter(year==1952| year==2007) %>% 
  group_by(country) %>% 
  mutate(max_pop = max(pop)) %>% 
  mutate(min_pop = min(pop)) %>% 
  mutate(range_pop = max_pop - min_pop) %>% 
  arrange(desc(range_pop))
gapminder_summed
```

```
## # A tibble: 284 × 9
## # Groups:   country [142]
##    country       continent  year lifeExp     pop gdpPe…¹ max_pop min_pop range…²
##    <fct>         <fct>     <int>   <dbl>   <int>   <dbl>   <int>   <int>   <int>
##  1 China         Asia       1952    44    5.56e8    400.  1.32e9  5.56e8  7.62e8
##  2 China         Asia       2007    73.0  1.32e9   4959.  1.32e9  5.56e8  7.62e8
##  3 India         Asia       1952    37.4  3.72e8    547.  1.11e9  3.72e8  7.38e8
##  4 India         Asia       2007    64.7  1.11e9   2452.  1.11e9  3.72e8  7.38e8
##  5 United States Americas   1952    68.4  1.58e8  13990.  3.01e8  1.58e8  1.44e8
##  6 United States Americas   2007    78.2  3.01e8  42952.  3.01e8  1.58e8  1.44e8
##  7 Indonesia     Asia       1952    37.5  8.21e7    750.  2.24e8  8.21e7  1.41e8
##  8 Indonesia     Asia       2007    70.6  2.24e8   3541.  2.24e8  8.21e7  1.41e8
##  9 Brazil        Americas   1952    50.9  5.66e7   2109.  1.90e8  5.66e7  1.33e8
## 10 Brazil        Americas   2007    72.4  1.90e8   9066.  1.90e8  5.66e7  1.33e8
## # … with 274 more rows, and abbreviated variable names ¹​gdpPercap, ²​range_pop
```
…
