…
```r
colleges %>% 
  pivot_wider( 
               names_from = "city",
              values_from = "adm_rate":"pftftug1_ef" )
```

```
## # A tibble: 341 × 969
##    instnm   stabbr zip   adm_r…¹ adm_r…² adm_r…³ adm_r…⁴ adm_r…⁵ adm_r…⁶ adm_r…⁷
##    <chr>    <chr>  <chr>   <dbl>   <dbl>   <dbl>   <dbl>   <dbl>   <dbl>   <dbl>
##  1 Grossmo… CA     9202…      NA      NA      NA      NA      NA      NA      NA
##  2 College… CA     9327…      NA      NA      NA      NA      NA      NA      NA
##  3 College… CA     9440…      NA      NA      NA      NA      NA      NA      NA
##  4 Ventura… CA     9300…      NA      NA      NA      NA      NA      NA      NA
##  5 Oxnard … CA     9303…      NA      NA      NA      NA      NA      NA      NA
##  6 Moorpar… CA     9302…      NA      NA      NA      NA      NA      NA      NA
##  7 Skyline… CA     9406…      NA      NA      NA      NA      NA      NA      NA
##  8 Glendal… CA     9120…      NA      NA      NA      NA      NA      NA      NA
##  9 Citrus … CA     9174…      NA      NA      NA      NA      NA      NA      NA
## 10 Fresno … CA     93741      NA      NA      NA      NA      NA      NA      NA
## # … with 331 more rows, 959 more variables: adm_rate_Glendale <dbl>,
## #   adm_rate_Glendora <dbl>, adm_rate_Fresno <dbl>,
## #   `adm_rate_Redwood City` <dbl>, adm_rate_Bakersfield <dbl>,
## #   `adm_rate_Los Altos Hills` <dbl>, adm_rate_Reedley <dbl>,
## #   adm_rate_Porterville <dbl>, adm_rate_Walnut <dbl>,
## #   `adm_rate_Santa Maria` <dbl>, adm_rate_Lancaster <dbl>,
## #   `adm_rate_San Marcos` <dbl>, `adm_rate_San Francisco` <dbl>, …
```
…
